[
  {
    "tag": "list_0",
    "category": "Shopping",
    "listItems": [
      "Milk",
      "Potatos",
      "Butter"
    ]
  },
  {
    "tag": "list_1",
    "category": "Shopping",
    "listItems": [
      "Water",
      "Bacon",
      "Ham",
      "Strawberries"
    ]
  }
]